Midterm
…
summary(titanic$Age)

##    Min. 1st Qu.  Median    Mean 3rd Qu.    Max.    NA's 
##  0.1667 21.0000 28.0000 29.8811 39.0000 80.0000     263

the following observation if we calculate the number of people with age respectively and display them in a tabular format.

titanic %>%
      count(cut_width(Age, 0.5))

## Warning: Factor `cut_width(Age, 0.5)` contains implicit NA, consider using
## `forcats::fct_explicit_na`

## # A tibble: 94 x 2
##    `cut_width(Age, 0.5)`     n
##    <fct>                 <int>
##  1 [-0.25,0.25]              1
##  2 (0.25,0.75]               6
##  3 (0.75,1.25]              15
##  4 (1.75,2.25]              12
##  5 (2.75,3.25]               7
##  6 (3.75,4.25]              10
##  7 (4.75,5.25]               5
##  8 (5.75,6.25]               6
##  9 (6.75,7.25]               4
## 10 (7.75,8.25]               6
## #  with 84 more rows
…
